{
  "project_info": {
    "project_number": "1007577750781",
    "firebase_url": "https://hindugemeinde-f5561.firebaseio.com",
    "project_id": "hindugemeinde-f5561",
    "storage_bucket": "hindugemeinde-f5561.appspot.com"
  },
  "client": [
    {
      "client_info": {
        "mobilesdk_app_id": "1:1007577750781:android:3adece12804796e9b23294",
        "android_client_info": {
          "package_name": "com.example.hindugemeinde"
        }
      },
      "oauth_client": [
        {
          "client_id": "1007577750781-fvr0it6dsirqadp03legn8lpa05ujusi.apps.googleusercontent.com",
          "client_type": 1,
          "android_info": {
            "package_name": "com.example.hindugemeinde",
            "certificate_hash": "6777068b52304de1386bcbaddf81a8cd9132511d"
          }
        },
        {
          "client_id": "1007577750781-1i8bsd5ssi0ai80it0lk7a9ihq78qt4h.apps.googleusercontent.com",
          "client_type": 3
        }
      ],
      "api_key": [
        {
          "current_key": "AIzaSyC2E7GKMBPofuk04CfKCgYDhO7wSGukHTA"
        }
      ],
      "services": {
        "appinvite_service": {
          "other_platform_oauth_client": [
            {
              "client_id": "1007577750781-1i8bsd5ssi0ai80it0lk7a9ihq78qt4h.apps.googleusercontent.com",
              "client_type": 3
            }
          ]
        }
      }
    }
  ],
  "configuration_version": "1"
}